[gd_scene load_steps=5 format=2]

[ext_resource path="res://assets/char.png" type="Texture" id=1]
[ext_resource path="res://npc.gd" type="Script" id=2]

[sub_resource type="CapsuleShape2D" id=1]
radius = 6.38667
height = 15.3622

[sub_resource type="RectangleShape2D" id=2]
extents = Vector2( 6.09386, 12.6375 )

[node name="Character" type="KinematicBody2D"]
script = ExtResource( 2 )

[node name="Sprite" type="Sprite" parent="."]
texture = ExtResource( 1 )

[node name="CollisionShape2D" type="CollisionShape2D" parent="."]
position = Vector2( -0.157492, -1.81114 )
shape = SubResource( 1 )
one_way_collision = true

[node name="HitBox" type="Area2D" parent="."]
collision_layer = 1024
collision_mask = 1024

[node name="CollisionShape2D" type="CollisionShape2D" parent="HitBox"]
position = Vector2( 0, -1.54339 )
shape = SubResource( 2 )

[node name="Timer" type="Timer" parent="."]
autostart = true
[connection signal="timeout" from="Timer" to="." method="_on_Timer_timeout"]
